{
	"info": {
		"_postman_id": "0b5703d5-24f8-47d5-bb3a-5907c6fad701",
		"name": "user-registration",
		"schema": "https://schema.getpostman.com/json/collection/v2.1.0/collection.json"
	},
	"item": [
		{
			"name": "Create User Validation Error Scenario",
			"request": {
				"method": "POST",
				"header": [],
				"body": {
					"mode": "raw",
					"raw": ""
				},
				"url": {
					"raw": "http://localhost:9191/user-registration/user/register?username=test_123&dateOfBirth=1999-21-23&ssn=kjdfaksdfhadhf&password=asd1333",
					"protocol": "http",
					"host": [
						"localhost"
					],
					"port": "9191",
					"path": [
						"user-registration",
						"user",
						"register"
					],
					"query": [
						{
							"key": "username",
							"value": "test_123"
						},
						{
							"key": "dateOfBirth",
							"value": "1999-21-23"
						},
						{
							"key": "ssn",
							"value": "kjdfaksdfhadhf"
						},
						{
							"key": "password",
							"value": "asd1333"
						}
					]
				},
				"description": "Validations errors while creating a user"
			},
			"response": []
		},
		{
			"name": "Create User present in Exclusion List",
			"request": {
				"method": "POST",
				"header": [],
				"url": {
					"raw": "http://localhost:9191/user-registration/user/register?username=StephenHawking&password=Physicist1942&dateOfBirth=1815-12-10&ssn=85385075",
					"protocol": "http",
					"host": [
						"localhost"
					],
					"port": "9191",
					"path": [
						"user-registration",
						"user",
						"register"
					],
					"query": [
						{
							"key": "username",
							"value": "StephenHawking"
						},
						{
							"key": "password",
							"value": "Physicist1942"
						},
						{
							"key": "dateOfBirth",
							"value": "1815-12-10"
						},
						{
							"key": "ssn",
							"value": "85385075"
						}
					]
				},
				"description": "Request to create a user present in Exclusion list"
			},
			"response": []
		},
		{
			"name": "Create User Request",
			"request": {
				"method": "POST",
				"header": [],
				"url": {
					"raw": "http://localhost:9191/user-registration/user/register?username=StephenHawking&password=Physicist1942&dateOfBirth=1942-01-08&ssn=654987123",
					"protocol": "http",
					"host": [
						"localhost"
					],
					"port": "9191",
					"path": [
						"user-registration",
						"user",
						"register"
					],
					"query": [
						{
							"key": "username",
							"value": "StephenHawking"
						},
						{
							"key": "password",
							"value": "Physicist1942"
						},
						{
							"key": "dateOfBirth",
							"value": "1942-01-08"
						},
						{
							"key": "ssn",
							"value": "654987123"
						}
					]
				},
				"description": "Request to create a user"
			},
			"response": []
		},
		{
			"name": "De-Activate User",
			"request": {
				"method": "PUT",
				"header": [],
				"url": {
					"raw": "http://localhost:9191/user-registration/user/2/deactivate",
					"protocol": "http",
					"host": [
						"localhost"
					],
					"port": "9191",
					"path": [
						"user-registration",
						"user",
						"2",
						"deactivate"
					]
				},
				"description": "Request to de-activate suer"
			},
			"response": []
		},
		{
			"name": "Get All Exclusions",
			"request": {
				"method": "GET",
				"header": [],
				"url": {
					"raw": "http://localhost:9191/user-registration/exclusion/all",
					"protocol": "http",
					"host": [
						"localhost"
					],
					"port": "9191",
					"path": [
						"user-registration",
						"exclusion",
						"all"
					]
				},
				"description": "Request to get all exclusions"
			},
			"response": []
		},
		{
			"name": "Add Exclusion",
			"request": {
				"method": "POST",
				"header": [],
				"url": {
					"raw": "http://localhost:9191/user-registration/exclusion/add?dateOfBirth=1942-01-08&ssn=654987123",
					"protocol": "http",
					"host": [
						"localhost"
					],
					"port": "9191",
					"path": [
						"user-registration",
						"exclusion",
						"add"
					],
					"query": [
						{
							"key": "dateOfBirth",
							"value": "1942-01-08"
						},
						{
							"key": "ssn",
							"value": "654987123"
						}
					]
				},
				"description": "Request to add exclusion"
			},
			"response": []
		},
		{
			"name": "Add Exclusion Validation Error",
			"request": {
				"method": "POST",
				"header": [],
				"url": {
					"raw": "http://localhost:9191/user-registration/exclusion/add?dateOfBirth=1942-01-41&ssn=654987123",
					"protocol": "http",
					"host": [
						"localhost"
					],
					"port": "9191",
					"path": [
						"user-registration",
						"exclusion",
						"add"
					],
					"query": [
						{
							"key": "dateOfBirth",
							"value": "1942-01-41"
						},
						{
							"key": "ssn",
							"value": "654987123"
						}
					]
				}
			},
			"response": []
		},
		{
			"name": "Remove Exclusion",
			"request": {
				"method": "PUT",
				"header": [],
				"url": {
					"raw": "http://localhost:9191/user-registration/exclusion/remove?dateOfBirth=1815-12-10&ssn=85385075",
					"protocol": "http",
					"host": [
						"localhost"
					],
					"port": "9191",
					"path": [
						"user-registration",
						"exclusion",
						"remove"
					],
					"query": [
						{
							"key": "dateOfBirth",
							"value": "1815-12-10"
						},
						{
							"key": "ssn",
							"value": "85385075"
						}
					]
				},
				"description": "Request to remove exclusion"
			},
			"response": []
		},
		{
			"name": "Remove Exclusion Validation Scenario",
			"request": {
				"method": "PUT",
				"header": [],
				"url": {
					"raw": "http://localhost:9191/user-registration/exclusion/remove?dateOfBirth=1942-01-41&ssn=85385075",
					"protocol": "http",
					"host": [
						"localhost"
					],
					"port": "9191",
					"path": [
						"user-registration",
						"exclusion",
						"remove"
					],
					"query": [
						{
							"key": "dateOfBirth",
							"value": "1942-01-41"
						},
						{
							"key": "ssn",
							"value": "85385075"
						}
					]
				}
			},
			"response": []
		}
	],
	"protocolProfileBehavior": {}
}